{
  "chart percentages": {
    "e2720hs-monitor-pcf-datasheet.pdf": {"transp": 9.9, "EOL": 0.6},
    "latitude-7410-chromebook-enterprise-word-pcf-datasheet.pdf": {"use": 6.3, "transp": 2.5},
    "latitude-5300-2-in-1-chromebook-pcf-datasheet.pdf": {"transp": 3.3, "EOL": 0.2},
    "carbon-footprint-precision-7910.pdf": {"prod": 18.7, "use": 78.2},
    "carbon-footprint-latitude-3150.pdf": {"power": 9.8},
    "carbon-footprint-latitude-3160.pdf": {"power": 8.6},
    "latitude-7220-rugged-extreme-pcf-datasheet.pdf": {"battery": 5.6, "materials": 3.4, "board": 8.5, "lcd_assembly": 0.4, "IC": 65.9},
    "precision-7750.pdf": {"board": 28.3, "disp": 26.1, "power": 19.6, "box": 3.8, "battery": 2.3, "SSD": 1.8, "packaging": 0.4},
    "carbon-footprint-U2717D-monitor.pdf": {"EOL": 0.3},
    "carbon-footprint-latitude-3189.pdf": {"prod": 83, "box": 5.1, "HDD": 3.6, "power": 8.2, "battery": 2.5, "board": 33.9, "disp": 29.4},
    "latitude-5310-pcf-datasheet.pdf": {"transp": 2.9},
    "latitude-5300-2-in-1.pdf": {"transp": 3.3},
    "latitude-5300.pdf": {"transp": 3.3},
    "xps-13-9380.pdf": {"transp": 3.5},
    "precision-3541.pdf": {"transp": 3.6},
    "wyse-5470-all-in-one-thin-client-pcf-datasheet.pdf": {"prod": 56.8, "EOL": 0.4, "electronics": 23.4, "power": 14.6, "materials": 12.4, "assembly": 4.2, "packaging": 2.2},
    "latitude-7300-25th-anniversary-edition-pcf-datasheet.pdf": {"use": 24, "transp": 9.2, "EOL": -8, "prod": 74.8, "SSD": 12.7, "battery": 3, "disp": 8.25, "power": 2.25, "mechanical": 9, "PWBs": 35.25, "other_electronics": 4.5},
    "chromebook_3100_2_in_1.pdf": {"prod": 87.6},
    "c07525206.pdf": {"power": 5.7},
    "carbon-footprint-optiplex-5060-tower.pdf": {"prod": 43, "use": 51, "transp": 5, "EOL": 1, "packaging": 1.83, "board": 47.87, "power": 35.36, "HDD": 4.84, "box": 10.05},
    "carbon-footprint-poweredge-r930.pdf": {"prod": 13.4, "use": 85.9, "transp": 0.5, "EOL": 0.2},
    "P2219H_Monitor_without_stand.pdf": {"use": 21.7, "transp": 5.1},
    "e1916h_monitor_pcf_datasheet.pdf": {"use": 26.6, "transp": 4.2, "EOL": 0.2},
    "dell-c3422we-monitor-pcf-datasheet.pdf": {"use": 29.9, "prod": 58.6},
    "p2422he-monitor-pcf-datasheet": {"transp": 7.7, "EOL": 0.4, "packaging": 1, "power": 1.8, "housing": 2.7, "electronics": 35.6, "panel": 22.9},
    "optiplex-7480-aio.pdf": {"transp": 12.3, "EOL": 0.8},
    "p2722h-monitor-pcf-datasheet.pdf": {"transp": 9.1, "EOL": 0.5},
    "u2722d-monitor-pcf-datasheet.pdf": {"transp": 8.7, "EOL": 0.5},
    "u2722dx-monitor-pcf-datasheet.pdf": {"transp": 8.7, "EOL": 0.5},
    "latitude-5520-pcf-datasheet.pdf": {"use": 15.1, "transp": 4.0, "EOL": 0.2, "prod": 80.7, "packaging": 0.4, "battery": 2.5, "SSD": 2.3, "box": 3.6, "power": 8.2, "board": 24.2, "disp": 39.5},
    "PCF-Lenovo-YB1-X90F-X90L.pdf": {"use": 17, "transp": 19, "EOL": 0, "prod": 64},
    "PCF-Legion-T530-AMD.pdf": {"use": 59, "transp": 3, "EOL": 1},
    "pcf-thinkvision-e24-28.pdf": {"use": 67, "transp": 3, "EOL": 0},
    "pcf-lenovo-300w-gen-3-amd.pdf": {"use": 10, "transp": 3, "EOL": 0},
    "optiplex-3090-ultra.pdf": {"transp": 3.7},
    "cache/Monitor/DELL/dell-u2422h-monitor-pcf-datasheet-1_2.png": {"transp": 8.2},
    "cache/Monitor/DELL/dell-u2422hx-monitor-pcf-datasheet.pdf": {"transp": 8.2},
    "p2422he-monitor-pcf-datasheet.pdf": {"transp": 7.7},
    "dell-s2721d-monitor-pcf-datasheet.pdf": {"transp": 7.4},
    "dell-s2421hs-monitor-pcf-datasheet.pdf": {"transp": 7.1},
    "latitude-7520.pdf": {"transp": 3.5},
    "latitude-9420-pcf-datasheet.pdf": {"transp": 2.9},
    "precision-3450-small-form-factor-pcf-datasheet.pdf": {"transp": 2.4},
    "precision-3650-tower-pcf-datasheet.pdf": {"transp": 2.2},
    "dell-c2722de-monitor-pcf-datasheet.pdf": {"prod": 62.4, "use": 26.4, "transp": 10.5, "EOL": 0.7},
    "dell-c2422he-monitor-pcf-datasheet.pdf": {"prod": 66.6, "use": 25.3, "transp": 7.6, "EOL": 0.5},
    "xps-13-9310-2-in-1": {"prod": 83.6, "use": 11.6, "transp": 4.4, "EOL": 0.3},
    "precision-7730.pdf": {"prod": 83.5, "use": 11, "transp": 5, "EOL": 0.5},
    "pcf-thinkpad-p1-gen-4_x1-extreme-gen-4.pdf": {"prod": 76.5, "use": 21, "transp": 2, "EOL": 0.5},
    "pcf-thinksystem-sd630-v2.pdf": {"transp": 0.1, "use": 84, "EOL": 0.1},
    "pcf-thinksystem-sr850p.pdf": {"transp": 2, "use": 73, "EOL": 0.1},
    "PCF_ThinkSystem_SR670.pdf": {"transp": 4, "use": 78, "EOL": 0.1},
    "PCF-TAB3-8-Plus.pdf": {"transp": 28, "use": 19, "EOL": 0.1},
    "latitude-5320.pdf": {"transp": 2.6, "use": 10.7, "EOL": 0.2, "prod": 86.5},
    "pcf-thinksystem-se350.pdf": {"transp": 8, "use": 50, "EOL": 0.1},
    "dell-u2422h-monitor-pcf-datasheet.pdf": {"transp": 8.2, "use": 20.7, "EOL": 0.5, "prod": 70.7},
    "dell-u2422hx-monitor-pcf-datasheet.pdf": {"transp": 8.2, "use": 20.7, "EOL": 0.5, "prod": 70.7},
    "pcf-thinkvision-e22-20_t22s-20.pdf": {"transp": 1, "use": 42, "EOL": 1},
    "pcf-thinkvision-s28u-10.pdf": {"transp": 3, "use": 34, "EOL": 1},
    "pcf-lenovo-l27q-30.pdf": {"transp": 3, "use": 50, "EOL": 1},
    "PCF_Lenovo_D24f-10.pdf": {"transp": 3, "use": 57, "EOL": 1},
    "pcf-thinkvision-p40w-20.pdf": {"transp": 10, "use": 57, "EOL": 1},
    "PCF_ThinkVision_M14.pdf": {"transp": 2, "use": 13, "EOL": 1},
    "pcf-ideapad-flex-3-chromebook-11-update.pdf": {"transp": 7, "use": 11, "EOL": 0.5},
    "pcf-lenovo-legion-t5-tower.pdf": {"transp": 4, "use": 28, "EOL": 0.2},
    "u2722de-monitor-pcf-datasheet.pdf": {"EOL": 0.5, "transp": 7.8},
    "U2419HC-Monitor.pdf": {"transp": 20, "use": 20, "EOL": 0.5, "prod": 70.5},
    "lca_poweredge_r740.pdf": {"prod": 48.6, "use": 51.4, "transp": 0, "EOL": 0, "SSD": 39.4, "board": 9.7, "power": 0.3, "box": 0.5},
    "PCF_ThinkVision_S22e-19.pdf": {"transp": 2, "use": 40, "EOL": 0.5},
    "PCF_ThinkVision_L24e-20.pdf": {"transp": 2, "use": 42, "EOL": 1},
    "PCF-ThinkVision-L24i-20.pdf": {"transp": 6, "use": 17, "EOL": 1},
    "PCF_ThinkVision_T23d-10.pdf": {"transp": 10, "use": 29, "EOL": 1},
    "PCF_ThinkVision_S24e-10.pdf": {"transp": 2, "use": 42, "EOL": 0.5},
    "PCF_ThinkVision_S23d-10.pdf": {"transp": 9, "use": 29, "EOL": 1},
    "# PCF-ThinkVision-P24q.pdf": {"transp": 2, "use": 36, "EOL": 2},
    "PCF-ThinkVision-L24q-10.pdf": {"transp": 4, "use": 17, "EOL": 1},
    "PCF-ThinkVision-L24i-10.pdf": {"transp": 4, "use": 16, "EOL": 0.5},
    "pcf-thinkpadX390-update2.pdf": {"transp": 6, "use": 16, "EOL": 1},
    "precision-3560-pcf-datasheet.pdf": {"prod": 80.8, "use": 14.8, "transp": 4.1, "EOL": 0.2, "board": 21.9, "disp": 41.3, "power": 8.5, "box": 3.7, "SSD": 2.5, "battery": 2.6, "packaging": 0.4},
    "PCF_ideapad_530s-14.pdf": {"transp": 6, "use": 29, "EOL": 0.5, "box": 3, "power": 6, "battery": 2, "board": 12, "disp": 22},
    "PCF-T2324p.pdf": {"transp": 2, "use": 62, "EOL": 1, "panel": 30, "housing": 3, "packaging": 2},
    "pcf-thinkvision-t23i-10_p23i-10.pdf": {"transp": 6, "use": 26, "EOL": 0.5, "panel": 56, "power": 4, "electronics": 6, "housing": 1, "packaging": 1},
    "pcf-thinkvision-t27p-10.pdf": {"transp": 2, "use": 57, "EOL": 1, "panel": 24, "power": 1, "housing": 3, "packaging": 2, "electronics": 10},
    "pcf-lenovo-thinkbook-14.pdf": {"transp": 6, "use": 29, "EOL": 0.5, "box": 3, "SSD": 21, "power": 7, "battery": 2, "board": 9, "disp" : 23},
    "pcf-thinkcentre-m75-tiny.pdf": {"transp": 3, "use": 44, "EOL": 1, "box": 2, "HDD": 2, "power": 10, "SSD": 14, "board": 22, "optical_drive" : 2},
    "pcf-thinkcentre-m80-tower.pdf": {"transp": 3, "use": 49, "EOL": 1},
    "pcf-thinkcentre-m90-tower.pdf": {"transp": 4, "use": 48, "EOL": 1},
    "pcf-thinkcentre-tio-22-4th-touch.pdf": {"transp": 3, "use": 39, "EOL": 1},
    "pcf-thinkcentre-tio-22-4th.pdf": {"transp": 3, "use": 39, "EOL": 1},
    "PCF-Lenovo-ThinkPad-8.pdf": {"transp": 5, "use": 15, "EOL": 0.5},
    "pcf-thinkvision-l24e-20.pdf": {"transp": 2, "use": 42, "EOL": 1},
    "pcf-thinkvision-s22e-19.pdf": {"transp": 2, "use": 40, "EOL": 0.5},
    "pcf-thinkvision-s23d-10.pdf": {"transp": 9, "use": 29, "EOL": 1},
    "pcf-thinkvision-s24e-10.pdf": {"transp": 2, "use": 42, "EOL": 0.5},
    "pcf-thinkvision-t23d-10.pdf": {"transp": 10, "use": 29, "EOL": 1},
    "pcf-lenovo-v50s-sff.pdf": {"transp": 2, "use": 32, "EOL": 1},
    "xps-13-9310-2-in-1.pdf": {"transp": 4.4, "use": 11.6, "EOL": 0.3, "prod": 83.6, "disp": 48.3, "board": 20.9, "power": 5.7, "box": 3, "battery": 2.4, "SSD": 2.2, "packaging": 1.2},
    "# chromebook_3100_2_in_1.pdf": {"prod": 87.6, "use": 8.7, "transp": 3.5, "EOL": 0.2, "board": 34.7, "disp": 34.1, "power": 9.2, "box": 4.2, "SSD": 3.1, "battery": 1.9, "packaging": 0.4}
    
  },
  "general": {
    "PCF-Lenovo-YB1-X90F-X90L.pdf": {"weight": 0.694, "global_mean": 635, "global_stdev": 237, "global95p": 872},
    "PCF-TAB3-8-Plus.pdf": {"weight": 0.6},
    "PCF-Lenovo-TAB3-7.pdf": {"weight": 0.176},
    "PCF-Legion-T530-AMD.pdf": {"global_mean": 1136, "global_stdev": 220, "global95p": 1548, "useloc": "WW"},
    "pcf-thinkvision-e24-28.pdf": {"global_mean": 598, "global_stdev": 237, "global95p": 1039},
    "c07525231.pdf": {"weight": 7.2, "kWh": 63.2},
    "PCF_Lenovo_Tab_M10.pdf": {"weight": 0.45},
    "PCF_Lenovo_Tab_P10.pdf": {"weight": 0.44},
    "PCF_Lenovo_Tab_M10_HD.pdf": {"weight": 0.3},
    "c07525011.pdf": {"weight": 1.6},
    "PCF-Lenovo-ThinkPad-T540p.pdf": {"weight": 2.5},
    "PCF_ThinkVision_P44w-10.pdf": {"weight": 13.5},
    "e1920h-monitor-pcf-datasheet.pdf": {"kWh": 21.02},
    "c07924432.pdf": {"kWh": 38.1},
    "c07524995.pdf": {"weight": 1.61},
    "c07525057.pdf": {"weight": 1.58},
    "lca_poweredge_r740.pdf": {"global_mean": 8815, "conf_storage": "x1 400GB SSD x8 3.4TB SSD", "conf_DRAM": 384, "conf_nb_cpus": 2, "lifetime": 4},
    "carbon-footprint-poweredge-r330.pdf": {"conf_server_type": "Rack"},
    "PCF-ThinkVision-P24q.pdf": {"global_mean": 352, "global_stdev":	94},
    "pcf-thinkcentre-m70-tiny.pdf": {"model": "ThinkCentre M70 Tiny"},
    "pcf-thinkcentre-m75-nano.pdf": {"model": "ThinkCentre M75 Nano"},
    "pcf-thinkcentre-m75q-tiny-2nd.pdf": {"model": "ThinkCentre M75q Tiny 2nd Gen"},
    "pcf-thinkcentre-m75s-gen-2.pdf": {"model": "ThinkCentre M75s Gen 2"},
    "pcf-thinkcentre-m80-tiny.pdf": {"model": "ThinkCentre M80 Tiny"},
    "pcf-thinkcentre-m90-tiny.pdf": {"model": "ThinkCentre M90 Tiny"},
    "c07649399.pdf": {"model": "OMEN by HP 16b Laptop PC"},
    "c07649554.pdf": {"model": "VICTUS by HP 16d Laptop PC"},
    "dell-precision-3460-small-form-factor-pcf-datasheet.pdf": {"model": "Precision 3460 Small Form Factor"}
  }
}
